mc20_13TeV.523073.MGPy8EG_A14NNPDF23LO_ttHH_dilep.deriv.DAOD_PHYSLITE.e8531_a907_r14859_p5855
mc20_13TeV.523073.MGPy8EG_A14NNPDF23LO_ttHH_dilep.deriv.DAOD_PHYSLITE.e8531_a907_r14860_p5855
mc20_13TeV.523073.MGPy8EG_A14NNPDF23LO_ttHH_dilep.deriv.DAOD_PHYSLITE.e8531_a907_r14861_p5855
