mc20_13TeV:mc20_13TeV.304014.MadGraphPythia8EvtGen_A14NNPDF23_3top_SM.deriv.DAOD_PHYSLITE.e4324_s3681_r13144_r13146_p5855
mc20_13TeV:mc20_13TeV.304014.MadGraphPythia8EvtGen_A14NNPDF23_3top_SM.deriv.DAOD_PHYSLITE.e4324_s3681_r13145_r13146_p5855
mc20_13TeV:mc20_13TeV.304014.MadGraphPythia8EvtGen_A14NNPDF23_3top_SM.deriv.DAOD_PHYSLITE.e4324_s3681_r13167_r13146_p5855
